{
    "contexts" : ["/home/arokis/ownCloud/dev/textmining/nlp/textmining/nlp-package"],
    "steps" : [
        {
            "id": "tokenizer-abbr",
            "function": {
                "name" : "tokenizeAbbr",
                "module" : "nlp.functions"
            },
            "arguments" : {
                "regex" : "\\w+-\\w+|\\w+|\\S+"
            }
        },
        {
            "id": "regex-cleaner",
            "function": {
                "name" : "regex_cleaner",
                "module" : "nlp.functions"
            },
            "arguments": { "regex": "[\\.;]?\\[\\d\\]|Uwe" }
        },
        {
            "id": "remove-punctuation",
            "function" : {
                "name" : "removePunctuation",
                "module" : "nlp.functions"
            }
        },
        {
            "id": "remove-stopwords",
            "function": {
                "name" : "removeStopwords",
                "module" : "nlp.functions"
            },
            "arguments" : {
                "stopwords" : {
                    "name" : "stopwords",
                    "module" : "nlp.languages.german"
                }
            }
        },
        {
            "id" : "lemmatise-by-cab",
            "function" : {
                "name" : "cab_lemmatiser",
                "module" : "nlp.functions"
            }
        },
        {
            "id": "lower-cases",
            "function" : {
                "name" : "transformCases",
                "module" : "nlp.functions"
            }
        }
    ]
}